# 3ds Max Wavefront OBJ Exporter v0.99 - (c)2007 guruware
# File Created: 13.10.2020 15:01:10

newmtl Material__25
	Ka 1.0000 1.0000 1.0000
	Kd 0.0000 0.0000 0.0000
	Ks 0.0000 0.0000 0.0000
	Tr 0.0000
	d 1.0000
	Tf 1.0000 1.0000 1.0000
	Pr 0.0000
	Pm 0.0000
	Pc 0.0000
	Pcr 0.0000
	Ni 1.5200
	Ke 0.0000 0.0000 0.0000
	illum 2
	map_Kd sky.jpg
