# Blender 3.3.1
# www.blender.org
mtllib lock_right.mtl
o Cube
v 1.000000 1.000000 -1.000000
v 0.584776 0.252148 -0.385683
v 1.000000 -1.000000 -1.000000
v 0.584776 0.176905 -0.378272
v -1.000000 1.000000 -1.000000
v 0.584776 0.104554 -0.356325
v -1.000000 -1.000000 -1.000000
v 0.584776 0.037874 -0.320684
v 0.656361 -0.695701 -0.117776
v 0.656361 -0.310018 -0.117776
v 0.584776 -0.020571 -0.272719
v 0.584776 -0.068535 -0.214274
v 0.584776 -0.104176 -0.147594
v 0.584776 -0.126124 -0.075243
v 0.656361 -0.502859 -0.117776
v 0.584776 -0.133535 -0.000000
v 0.656361 -0.502859 -0.326204
v 0.656361 -0.310018 -0.326204
v 0.584776 0.637831 0.000000
v 0.584776 0.630420 -0.075243
v 0.584776 0.608473 -0.147594
v 0.584776 0.572832 -0.214274
v 0.584776 0.524867 -0.272719
v 0.584776 0.466422 -0.320684
v 0.584776 0.399743 -0.356325
v 0.584776 0.327391 -0.378272
v 0.656361 -0.113222 -0.117776
v 0.656361 -0.126124 -0.075243
v 0.656361 -0.133535 -0.000000
v 1.000000 0.630420 -0.075243
v 1.000000 0.637831 0.000000
v 1.000000 -0.113222 -0.117776
v 1.000000 -0.104176 -0.147594
v 1.000000 0.608473 -0.147594
v 1.000000 -0.310018 -0.326204
v 1.000000 0.037874 -0.320684
v 1.000000 -0.068535 -0.214274
v 1.000000 -0.020571 -0.272719
v 1.000000 0.524867 -0.272719
v 1.000000 0.104554 -0.356325
v 1.000000 0.399743 -0.356325
v 1.000000 0.252148 -0.385683
v 1.000000 0.176905 -0.378272
v 1.000000 0.327391 -0.378272
v 1.000000 0.466422 -0.320684
v 1.000000 0.572832 -0.214274
v 1.000000 -0.695701 -0.117776
v 1.000000 -0.310018 -0.117776
v 1.000000 -0.502859 -0.117776
v 1.000000 -0.502859 -0.326204
v 1.000000 1.000000 -0.000000
v -1.000000 0.000000 0.000000
v -1.000000 -1.000000 0.000000
v 0.584776 -0.126124 -0.000000
v 1.000000 -0.695701 -0.000000
v 0.656361 -0.695701 -0.000000
v 0.584776 -0.025914 0.000000
v 0.656361 -0.599280 -0.000000
v 0.584776 0.252148 0.000000
v 0.828180 -0.695701 -0.000000
v 0.584776 0.530210 -0.000000
v 0.656361 -0.406438 0.000000
v 0.584776 -0.094957 0.000000
v 1.000000 -1.000000 0.000000
v -1.000000 1.000000 -0.000000
v 0.656361 -0.310018 0.000000
v -0.000000 -1.000000 0.000000
v 1.000000 -0.727764 0.000000
v 0.584776 0.402634 0.000000
v -0.000000 1.000000 -0.000000
v 0.656361 -0.502859 0.000000
v 0.584776 0.630420 -0.000000
v 0.584776 0.599253 -0.000000
vn -0.0000 -0.0000 1.0000
vn -1.0000 -0.0000 -0.0000
vn 1.0000 -0.0000 -0.0000
vn -0.0000 -0.0000 -1.0000
vn -0.0000 0.0980 0.9952
vn -0.0000 0.2903 0.9569
vn -0.0000 0.4714 0.8819
vn -0.0000 0.6344 0.7730
vn -0.0000 0.7730 0.6344
vn -0.0000 0.8819 0.4714
vn -0.0000 0.9569 0.2903
vn -0.0000 0.9952 0.0980
vn -0.0000 -0.9952 0.0980
vn -0.0000 -0.9569 0.2903
vn -0.0000 -0.8819 0.4714
vn -0.0000 -0.7730 0.6344
vn -0.0000 -0.6344 0.7730
vn -0.0000 -0.4714 0.8819
vn -0.0000 -0.2903 0.9569
vn -0.0000 -0.0980 0.9952
vn -0.0000 1.0000 -0.0000
vn -0.0000 -1.0000 -0.0000
vt 0.456024 0.912047
vt 0.456024 0.000000
vt 1.000000 0.694087
vt 0.905324 0.543964
vt 0.456024 0.456024
vt 0.905324 0.912047
vt 1.000000 0.711244
vt 0.907014 0.561120
vt 0.912047 0.000000
vt 0.000000 0.000000
vt 0.456024 0.456024
vt 1.000000 0.727740
vt 0.912018 0.577617
vt 0.000000 0.456024
vt 0.912047 0.456024
vt 0.905324 0.456024
vt 1.000000 0.742944
vt 0.920145 0.592821
vt 0.949294 0.889082
vt 0.905324 0.967436
vt 0.952848 0.889082
vt 0.912047 0.267706
vt 0.912047 0.424413
vt 0.952848 0.801142
vt 0.977658 0.189352
vt 1.000000 0.756270
vt 0.931081 0.606147
vt 0.962693 0.189352
vt 0.944407 0.617083
vt 0.946346 0.189352
vt 0.959611 0.625210
vt 0.929245 0.189352
vt 0.976108 0.630214
vt 0.949294 0.967436
vt 0.952848 0.845112
vt 0.958904 0.189352
vt 0.912047 0.189352
vt 0.993264 0.631904
vt 0.094676 0.714483
vt 0.912047 0.189352
vt 0.905324 0.845112
vt 0.000000 0.990401
vt 0.043970 0.990401
vt 0.905324 0.801142
vt 0.958837 0.267706
vt 0.912047 0.000000
vt 0.993264 0.456024
vt 0.094676 0.538602
vt 0.929234 0.000000
vt 0.976108 0.457713
vt 0.946353 0.000000
vt 0.959611 0.462718
vt 0.962744 0.000000
vt 0.944407 0.470844
vt 1.000000 0.631904
vt 0.977780 0.000000
vt 0.931081 0.481781
vt 1.000000 0.645230
vt 0.920145 0.495107
vt 1.000000 0.660434
vt 0.912018 0.510310
vt 1.000000 0.676931
vt 0.907014 0.526808
vt 0.939298 0.173030
vt 0.952848 0.756270
vt 0.956919 0.424413
vt 0.929245 0.173030
vt 0.962546 0.759212
vt 0.912047 0.173030
vt 0.979702 0.760902
vt 0.078354 0.714483
vt 0.666879 0.084269
vt 0.929234 0.094676
vt 0.912047 0.094676
vt 0.000000 0.538602
vt 0.684035 0.082579
vt 0.657181 0.253828
vt 0.956919 0.346059
vt 0.939298 0.094676
vt 0.650382 0.251765
vt 0.946346 0.094676
vt 0.650382 0.089273
vt 0.946353 0.094676
vt 0.609657 0.298699
vt 0.043970 0.912047
vt 0.958837 0.346059
vt 0.610916 0.219376
vt 0.905324 0.742944
vt 0.635178 0.243639
vt 0.962693 0.094676
vt 0.621852 0.232702
vt 0.905324 0.756270
vt 0.977658 0.094676
vt 0.621852 0.108336
vt 0.977780 0.094676
vt 0.905324 0.631904
vt 0.602789 0.204172
vt 0.905324 0.727740
vt 0.602789 0.136866
vt 0.905324 0.660434
vt 0.596095 0.170519
vt 0.905324 0.694087
vt 0.597785 0.187675
vt 0.905324 0.711244
vt 0.597785 0.153363
vt 0.905324 0.676931
vt 0.610916 0.121662
vt 0.905324 0.645230
vt 0.635178 0.097399
vt 0.962744 0.094676
vt 0.905324 0.889082
vt 0.949294 0.967436
vt 0.657181 0.386640
vt 0.657181 0.298699
vt 0.912047 0.346059
vt 0.657181 0.342670
vt 0.949294 0.889082
vt 0.958904 0.267706
vt 0.609657 0.342670
vt 0.000000 0.912047
vt 0.912047 0.267706
vt 0.000000 0.456024
vt 0.680835 0.912047
vt 0.684035 0.000000
vt 0.684035 0.228012
vt 0.456024 0.684035
vt 0.456024 0.912047
vt 0.684035 0.456024
vt 0.680835 0.456024
vt 0.993264 0.630214
vt 0.094676 0.712793
vt 0.975772 0.967436
vt 0.684035 0.386640
vt 0.000000 0.842663
vt 0.975772 0.889082
vt 0.979702 0.889082
vt 0.078354 0.842663
vt 0.094676 0.689944
vt 0.993264 0.607365
vt 0.979702 0.867097
vt 0.078354 0.820678
vt 0.993264 0.543964
vt 0.094676 0.626543
vt 0.975772 0.928259
vt 0.039177 0.842663
vt 0.993264 0.480562
vt 0.094676 0.563141
vt 0.979702 0.823127
vt 0.078354 0.776708
vt 0.094676 0.705687
vt 0.993264 0.623108
vt 0.684035 0.456024
vt 0.680835 0.912047
vt 0.000000 0.912047
vt 0.684035 0.000000
vt 0.680835 0.456024
vt 0.456024 0.456024
vt 0.979702 0.801142
vt 0.078354 0.754723
vt 0.228012 0.912047
vt 0.680835 0.684035
vt 0.684035 0.393951
vt 0.000000 0.849974
vt 0.993264 0.509651
vt 0.094676 0.592230
vt 0.228012 0.456024
vt 0.680835 0.684035
vt 0.979702 0.845112
vt 0.078354 0.798693
vt 0.094676 0.540292
vt 0.993264 0.457713
vt 0.993264 0.464820
vt 0.094676 0.547399
s 0
usemtl Material.001
f 52/126/1 53/127/1 67/160/1
f 56/137/1 64/154/1 60/145/1
f 52/125/2 7/15/2 53/128/2
f 62/149/1 67/160/1 71/169/1
f 1/2/3 39/94/3 45/107/3
f 5/10/4 3/5/4 7/14/4
f 52/126/1 67/160/1 16/39/1
f 70/166/1 52/126/1 59/143/1
f 65/155/2 5/9/2 7/15/2 52/125/2
f 56/137/1 58/141/1 67/160/1
f 33/80/3 32/77/3 48/114/3
f 35/84/3 50/119/3 3/5/3
f 33/80/3 48/114/3 35/84/3
f 37/89/3 33/80/3 35/84/3
f 35/84/3 3/5/3 40/97/3
f 3/5/3 1/2/3 43/103/3
f 35/84/3 40/97/3 36/87/3
f 38/91/3 37/89/3 35/84/3
f 36/87/3 38/91/3 35/84/3
f 40/97/3 3/5/3 43/103/3
f 63/150/1 57/138/1 52/126/1
f 42/101/3 43/103/3 1/2/3
f 1/2/3 31/76/3 30/72/3
f 1/2/3 30/72/3 34/82/3
f 44/105/3 42/101/3 1/2/3
f 41/99/3 44/105/3 1/2/3
f 1/2/3 34/82/3 46/109/3
f 1/2/3 46/109/3 39/94/3
f 45/107/3 41/99/3 1/2/3
f 50/119/3 49/116/3 47/113/3
f 3/5/3 50/119/3 47/113/3
f 64/152/3 3/5/3 68/162/3
f 5/10/4 1/2/4 3/5/4
f 52/126/1 16/39/1 54/131/1
f 64/154/1 68/163/1 60/145/1
f 62/149/1 66/159/1 16/39/1
f 57/138/1 59/143/1 52/126/1
f 73/173/1 72/170/1 70/166/1
f 69/165/1 61/147/1 70/166/1
f 31/75/1 51/122/1 19/48/1
f 5/11/21 65/156/21 70/167/21
f 3/6/22 64/153/22 67/161/22
f 54/131/1 63/150/1 52/126/1
f 67/160/1 64/154/1 56/137/1
f 67/160/1 62/149/1 16/39/1
f 61/147/1 73/173/1 70/166/1
f 65/157/1 52/126/1 70/166/1
f 72/170/1 19/48/1 70/166/1
f 66/159/1 29/71/1 16/39/1
f 58/141/1 71/169/1 67/160/1
f 3/5/3 47/113/3 55/133/3 68/162/3
f 68/163/1 55/134/1 60/145/1
f 51/122/1 70/166/1 19/48/1
f 3/6/22 67/161/22 53/129/22 7/16/22
f 59/143/1 69/165/1 70/166/1
f 5/11/21 70/167/21 51/123/21 1/1/21
f 1/2/3 51/124/3 31/76/3
usemtl マテリアル
f 4/7/5 42/102/5 2/3/5
f 6/12/6 43/104/6 4/7/6
f 8/17/7 40/98/7 6/12/7
f 11/26/8 36/88/8 8/17/8
f 12/28/9 38/93/9 11/25/9
f 13/30/10 37/90/10 12/28/10
f 13/30/11 27/64/11 33/81/11
f 28/67/12 16/37/12 29/69/12
f 20/49/13 31/74/13 19/46/13
f 21/51/14 30/73/14 20/49/14
f 22/53/15 34/83/15 21/51/15
f 23/56/16 46/110/16 22/53/16
f 24/58/17 39/96/17 23/55/17
f 25/60/18 45/108/18 24/58/18
f 26/62/19 41/100/19 25/60/19
f 2/3/20 44/106/20 26/62/20
f 57/139/3 12/29/3 24/59/3 59/142/3
f 9/20/1 49/117/1 15/34/1
f 60/144/21 47/112/21 9/19/21 56/135/21
f 58/140/3 9/21/3 15/35/3 71/168/3
f 27/66/1 48/115/1 32/78/1
f 62/148/3 15/35/3 10/24/3 66/158/3
f 17/41/3 10/24/3 15/35/3
f 17/42/1 35/85/1 18/43/1
f 18/45/22 48/115/22 10/22/22
f 15/36/21 50/121/21 17/40/21
f 4/7/5 43/104/5 42/102/5
f 6/12/6 40/98/6 43/104/6
f 8/17/7 36/88/7 40/98/7
f 11/26/8 38/92/8 36/88/8
f 12/28/9 37/90/9 38/93/9
f 13/30/10 33/81/10 37/90/10
f 13/30/11 14/32/11 27/64/11
f 14/32/11 28/67/11 27/64/11
f 27/64/11 32/79/11 33/81/11
f 28/67/12 14/32/12 16/37/12
f 20/49/13 30/73/13 31/74/13
f 21/51/14 34/83/14 30/73/14
f 22/53/15 46/110/15 34/83/15
f 23/56/16 39/95/16 46/110/16
f 24/58/17 45/108/17 39/96/17
f 25/60/18 41/100/18 45/108/18
f 26/62/19 44/106/19 41/100/19
f 2/3/20 42/102/20 44/106/20
f 24/59/3 23/57/3 20/50/3
f 23/57/3 22/54/3 20/50/3
f 22/54/3 21/52/3 20/50/3
f 16/38/3 14/33/3 54/130/3
f 14/33/3 13/31/3 12/29/3
f 12/29/3 11/27/3 8/18/3
f 8/18/3 6/13/3 12/29/3
f 6/13/3 4/8/3 12/29/3
f 4/8/3 2/4/3 26/63/3
f 26/63/3 25/61/3 4/8/3
f 25/61/3 24/59/3 4/8/3
f 73/172/3 61/146/3 24/59/3
f 54/130/3 14/33/3 63/151/3
f 61/146/3 69/164/3 24/59/3
f 69/164/3 59/142/3 24/59/3
f 12/29/3 4/8/3 24/59/3
f 9/20/1 47/111/1 49/117/1
f 60/144/21 55/132/21 47/112/21
f 58/140/3 56/136/3 9/21/3
f 66/158/3 10/24/3 29/70/3
f 10/24/3 27/65/3 28/68/3
f 10/24/3 28/68/3 29/70/3
f 27/66/1 10/23/1 48/115/1
f 62/148/3 71/168/3 15/35/3
f 17/41/3 18/44/3 10/24/3
f 17/42/1 50/120/1 35/85/1
f 18/45/22 35/86/22 48/115/22
f 15/36/21 49/118/21 50/121/21
f 20/50/3 72/171/3 73/172/3 24/59/3
f 14/33/3 12/29/3 57/139/3 63/151/3
f 20/50/3 19/47/3 72/171/3
